8: Time to completion: 0.869564, compareTime: 0.054077, exchangeTime: 0.075757
8: Sizes at each dimension
8: 00001: 312500	239517	107324	57089	45109	
16: Time to completion: 0.870967, compareTime: 0.055161, exchangeTime: 0.076251
16: Sizes at each dimension
16: 00001: 312500	239417	108143	57864	70190	
24: Time to completion: 0.864849, compareTime: 0.053997, exchangeTime: 0.075125
24: Sizes at each dimension
24: 00001: 312500	239099	106961	57306	44980	
23: Time to completion: 0.856227, compareTime: 0.066221, exchangeTime: 0.069199
23: Sizes at each dimension
23: 00001: 312500	385359	296039	7601	5070	
31: Time to completion: 0.850594, compareTime: 0.066369, exchangeTime: 0.069209
31: Sizes at each dimension
31: 00001: 312500	385502	296258	7550	10081	
15: Time to completion: 0.856865, compareTime: 0.066788, exchangeTime: 0.069170
15: Sizes at each dimension
15: 00001: 312500	385567	296315	7476	10123	
7: Time to completion: 0.862750, compareTime: 0.066220, exchangeTime: 0.069797
7: Sizes at each dimension
7: 00001: 312500	385463	296387	7589	4942	
28: Time to completion: 0.862688, compareTime: 0.058163, exchangeTime: 0.076873
28: Sizes at each dimension
28: 00001: 312500	239929	107312	156967	39858	
12: Time to completion: 0.869487, compareTime: 0.058177, exchangeTime: 0.077826
12: Sizes at each dimension
12: 00001: 312500	239420	107312	157547	39804	
0: Time to completion: 0.879428, compareTime: 0.054975, exchangeTime: 0.078105
0: Sizes at each dimension
0: 00001: 312500	239787	107708	57834	69814	
26: Time to completion: 0.880978, compareTime: 0.062772, exchangeTime: 0.094999
26: Sizes at each dimension
26: 00001: 312500	238933	371071	10010	10091	
18: Time to completion: 0.887795, compareTime: 0.062937, exchangeTime: 0.095535
18: Sizes at each dimension
18: 00001: 312500	239709	370983	10014	9933	
10: Time to completion: 0.888693, compareTime: 0.063376, exchangeTime: 0.095104
10: Sizes at each dimension
10: 00001: 312500	239127	371320	10035	10077	
2: Time to completion: 0.894778, compareTime: 0.120014, exchangeTime: 0.039137
2: Sizes at each dimension
2: 00001: 312500	238913	370992	9976	9934	
20: Time to completion: 0.893104, compareTime: 0.068558, exchangeTime: 0.087450
20: Sizes at each dimension
20: 00001: 312500	239590	108013	158292	275401	
25: Time to completion: 0.891626, compareTime: 0.081068, exchangeTime: 0.083518
25: Sizes at each dimension
25: 00001: 312500	385901	475299	122298	50222	
9: Time to completion: 0.902185, compareTime: 0.080899, exchangeTime: 0.085288
9: Sizes at each dimension
9: 00001: 312500	385483	474890	122694	49852	
4: Time to completion: 0.907174, compareTime: 0.068729, exchangeTime: 0.089157
4: Sizes at each dimension
4: 00001: 312500	239474	107931	157805	275548	
17: Time to completion: 0.924895, compareTime: 0.087938, exchangeTime: 0.092816
17: Sizes at each dimension
17: 00001: 312500	385583	474926	122532	194608	
19: Time to completion: 0.929757, compareTime: 0.099808, exchangeTime: 0.098274
19: Sizes at each dimension
19: 00001: 312500	385291	295948	584386	149697	
3: Time to completion: 0.941533, compareTime: 0.098964, exchangeTime: 0.101902
3: Sizes at each dimension
3: 00001: 312500	386087	295577	584375	149595	
1: Time to completion: 0.926813, compareTime: 0.087316, exchangeTime: 0.095195
1: Sizes at each dimension
1: 00001: 312500	385213	475723	122210	195052	
21: Time to completion: 0.966462, compareTime: 0.123632, exchangeTime: 0.115498
21: Sizes at each dimension
21: 00001: 312500	385410	474730	827124	195503	
5: Time to completion: 0.990040, compareTime: 0.122688, exchangeTime: 0.118055
5: Sizes at each dimension
5: 00001: 312500	385526	474602	828115	194375	
6: Time to completion: 1.036104, compareTime: 0.129197, exchangeTime: 0.160187
6: Sizes at each dimension
6: 00001: 312500	239537	371080	732096	654897	
11: Time to completion: 1.034241, compareTime: 0.143370, exchangeTime: 0.128554
11: Sizes at each dimension
11: 00001: 312500	385873	296466	585305	1020085	
27: Time to completion: 1.052441, compareTime: 0.143375, exchangeTime: 0.127459
27: Sizes at each dimension
27: 00001: 31250022: Time to completion: 1.054641, compareTime: 0.126163, exchangeTime: 0.161732
22: Sizes at each dimension
22: 00001: 312500	239641	371218	732187	654985	
	386067	296669	585377	1020066	
30: Time to completion: 1.071835, compareTime: 0.134824, exchangeTime: 0.183436
30: Sizes at each dimension
30: 00001: 312500	239498	372115	733176	810378	
13: Time to completion: 1.098922, compareTime: 0.185313, exchangeTime: 0.163676
13: Sizes at each dimension
13: 00001: 312500	385580	474832	827028	1460768	
14: Time to completion: 1.107988, compareTime: 0.193190, exchangeTime: 0.127216
14: Sizes at each dimension
14: 00001: 312500	239433	371541	732826	810025	
29: Time to completion: 1.191574, compareTime: 0.187437, exchangeTime: 0.161995
29: Sizes at each dimension
29: 00001: 312500	385071	474315	827316	1458937	
