2: Time to completion: 0.963264, compareTime: 0.227485, exchangeTime: 0.109148
2: Sizes at each dimension
2: 00001: 1250000	910620	799595	
4: Time to completion: 0.997790, compareTime: 0.238164, exchangeTime: 0.114969
4: Sizes at each dimension
4: 00001: 1250000	909070	1019214	
3: Time to completion: 1.003260, compareTime: 0.259854, exchangeTime: 0.128936
3: Sizes at each dimension
3: 00001: 1250000	1589380	744896	
6: Time to completion: 1.015424, compareTime: 0.226802, exchangeTime: 0.108281
6: Sizes at each dimension
6: 00001: 1250000	909577	799433	
0: Time to completion: 1.046546, compareTime: 0.239015, exchangeTime: 0.116642
0: Sizes at each dimension
0: 00001: 1250000	910646	1021671	
7: Time to completion: 1.067063, compareTime: 0.259660, exchangeTime: 0.129134
7: Sizes at each dimension
7: 00001: 1250000	1590423	745531	
5: Time to completion: 1.250278, compareTime: 0.346479, exchangeTime: 0.190355
5: Sizes at each dimension
5: 00001: 1250000	1590930	2435822	
1: Time to completion: 1.297403, compareTime: 0.345942, exchangeTime: 0.193558
1: Sizes at each dimension
1: 00001: 1250000	1589354	2433838	
